Robust Outlier-aware Estimation of Composition and Heterogeneity for Single-cell Data • sccomp
…
## sccomp says: outlier identification first pass - step 1/3 [ETA: ~20s]

## sccomp says: outlier identification second pass - step 2/3 [ETA: ~60s]

## sccomp says: outlier-free model fitting - step 3/3 [ETA: ~20s]

## sccomp says: the composition design matrix has columns: (Intercept), typecancer

## sccomp says: the variability design matrix has columns: (Intercept)

res

## # A tibble: 72 × 9
##    cell_group parameter   covariate c_lower c_effect c_upper   c_pH0   c_FDR
##    <chr>      <chr>       <chr>       <dbl>    <dbl>   <dbl>   <dbl>   <dbl>
##  1 B1         (Intercept) <NA>       0.557     0.710  0.866  0       0      
##  2 B1         typecancer  type      -1.19     -0.888 -0.587  0       0      
##  3 B2         (Intercept) <NA>       0.177     0.414  0.657  0.0368  0.00286
##  4 B2         typecancer  type      -1.18     -0.748 -0.312  0.00976 0.00177
##  5 B3         (Intercept) <NA>      -0.610    -0.409 -0.205  0.0225  0.00165
##  6 B3         typecancer  type      -0.593    -0.219  0.151  0.461   0.113  
##  7 BM         (Intercept) <NA>      -1.31     -1.10  -0.884  0       0      
##  8 BM         typecancer  type      -0.736    -0.344  0.0415 0.234   0.0643 
##  9 CD4 1      (Intercept) <NA>       0.362     0.490  0.627  0       0      
## 10 CD4 1      typecancer  type      -0.0882    0.161  0.420  0.622   0.163  
## # … with 62 more rows, and 1 more variable: count_data <list>
…
## sccomp says: outlier identification first pass - step 1/3 [ETA: ~20s]

## sccomp says: outlier identification second pass - step 2/3 [ETA: ~60s]

## sccomp says: outlier-free model fitting - step 3/3 [ETA: ~20s]

## sccomp says: the composition design matrix has columns: (Intercept), typecancer

## sccomp says: the variability design matrix has columns: (Intercept), typecancer

res

## # A tibble: 72 × 14
##    cell_group parameter   covariate c_lower c_effect c_upper    c_pH0     c_FDR
##    <chr>      <chr>       <chr>       <dbl>    <dbl>   <dbl>    <dbl>     <dbl>
##  1 B1         (Intercept) <NA>        0.627    0.796  0.972  0        0        
##  2 B1         typecancer  type       -1.26    -0.930 -0.602  0.000250 0.0000501
##  3 B2         (Intercept) <NA>        0.190    0.417  0.667  0.0315   0.00150  
##  4 B2         typecancer  type       -1.04    -0.561 -0.0636 0.0673   0.0108   
##  5 B3         (Intercept) <NA>       -0.557   -0.360 -0.150  0.0618   0.00526  
##  6 B3         typecancer  type       -0.518   -0.124  0.296  0.648    0.203    
##  7 BM         (Intercept) <NA>       -1.26    -1.05  -0.822  0        0        
##  8 BM         typecancer  type       -0.741   -0.298  0.163  0.323    0.0956   
##  9 CD4 1      (Intercept) <NA>        0.370    0.510  0.655  0        0        
## 10 CD4 1      typecancer  type       -0.117    0.176  0.470  0.569    0.139    
## # … with 62 more rows, and 6 more variables: v_lower <dbl>, v_effect <dbl>,
## #   v_upper <dbl>, v_pH0 <dbl>, v_FDR <dbl>, count_data <list>
…
