…
    ## Model specifications:
    ##   Family: multi_beta_binomial 
    ##   Composition formula: ~type 
    ##   Variability formula: ~1 
    ##   Inference method: pathfinder 
    ## 
    ## Data: Samples: 20   Cell groups: 36 
    ## 
    ## Column prefixes: c_ -> composition parameters  v_ -> variability parameters
    ## 
    ## Convergence diagnostics:
    ##   For each parameter, n_eff is the effective sample size and R_k_hat is the potential
    ##   scale reduction factor on split chains (at convergence, R_k_hat = 1).
    ## 
    ## # A tibble: 72 × 19
    ##    cell_group parameter factor  c_lower c_effect  c_upper   c_pH0   c_FDR c_rhat
    ##    <chr>      <chr>     <chr>     <dbl>    <dbl>    <dbl>   <dbl>   <dbl>  <dbl>
    ##  1 B1         (Interce… <NA>    9.52e-1    1.20   1.45e+0 0       0        1.00 
    ##  2 B1         typecanc… type   -9.11e-1   -0.612 -3.10e-1 1.50e-3 2.05e-4  1.00 
    ##  3 B2         (Interce… <NA>    5.20e-1    0.769  1.04e+0 0       0        1.00 
    ##  4 B2         typecanc… type   -9.67e-1   -0.667 -3.47e-1 5.00e-4 7.50e-5  1.000
    ##  5 B3         (Interce… <NA>   -5.91e-1   -0.332 -6.40e-2 4.30e-2 3.25e-3  1.000
    ##  6 B3         typecanc… type   -5.78e-1   -0.278  3.63e-2 1.18e-1 2.28e-2  1.000
    ##  7 BM         (Interce… <NA>   -1.23e+0   -0.970 -7.12e-1 0       0        1.000
    ##  8 BM         typecanc… type   -5.68e-1   -0.289  5.55e-5 1.01e-1 1.48e-2  1.000
    ##  9 CD4 1      (Interce… <NA>    2.04e-1    0.368  5.29e-1 2.50e-4 1.04e-5  1.00 
    ## 10 CD4 1      typecanc… type   -3.05e-4    0.206  4.09e-1 1.57e-1 2.82e-2  1.00 
    ## # ℹ 62 more rows
    ## # ℹ 10 more variables: c_ess_bulk <dbl>, c_ess_tail <dbl>, v_lower <dbl>,
    ## #   v_effect <dbl>, v_upper <dbl>, v_pH0 <dbl>, v_FDR <dbl>, v_rhat <dbl>,
    ## #   v_ess_bulk <dbl>, v_ess_tail <dbl>
…
    ## Model specifications:
    ##   Family: multi_beta_binomial 
    ##   Composition formula: ~type + continuous_covariate 
    ##   Variability formula: ~1 
    ##   Inference method: pathfinder 
    ## 
    ## Data: Samples: 20   Cell groups: 30 
    ## 
    ## Column prefixes: c_ -> composition parameters  v_ -> variability parameters
    ## 
    ## Convergence diagnostics:
    ##   For each parameter, n_eff is the effective sample size and R_k_hat is the potential
    ##   scale reduction factor on split chains (at convergence, R_k_hat = 1).
    ## 
    ## # A tibble: 90 × 15
    ##    cell_group        parameter factor c_lower c_effect c_upper c_rhat c_ess_bulk
    ##    <chr>             <chr>     <chr>    <dbl>    <dbl>   <dbl>  <dbl>      <dbl>
    ##  1 B immature        (Interce… <NA>     0.557   0.830    1.11   1.000      4093.
    ##  2 B immature        typeheal… type     1.02    1.35     1.67   1.00       3890.
    ##  3 B immature        continuo… conti…  -0.272   0.0475   0.375  1.00       3926.
    ##  4 B mem             (Interce… <NA>    -0.992  -0.672   -0.358  1.00       3890.
    ##  5 B mem             typeheal… type     1.20    1.57     1.93   1.00       4096.
    ##  6 B mem             continuo… conti…  -0.273   0.0663   0.413  1.00       3535.
    ##  7 CD4 cm S100A4     (Interce… <NA>     1.31    1.55     1.78   1.00       4032.
    ##  8 CD4 cm S100A4     typeheal… type     0.857   1.12     1.40   1.000      4018.
    ##  9 CD4 cm S100A4     continuo… conti…  -0.110   0.173    0.448  1.00       3754.
    ## 10 CD4 cm high cyto… (Interce… <NA>    -0.933  -0.583   -0.251  1.00       3738.
    ## # ℹ 80 more rows
    ## # ℹ 7 more variables: c_ess_tail <dbl>, v_lower <dbl>, v_effect <dbl>,
    ## #   v_upper <dbl>, v_rhat <dbl>, v_ess_bulk <dbl>, v_ess_tail <dbl>
…
### Random Intercept Model

In this example, we demonstrate how to fit a random intercept model
using sccomp. We’ll model the cell-type proportions with both fixed
effects (e.g., treatment) and random effects (e.g., subject-specific
variability).

Here is the input data

``` r
seurat_obj[[]] |> as_tibble()
```

    ## # A tibble: 106,297 × 9
    ##    cell_group nCount_RNA nFeature_RNA group__ group__wrong sample type  group2__
    ##    <chr>           <dbl>        <int> <chr>   <chr>        <chr>  <chr> <chr>   
    ##  1 CD4 naive           0            0 GROUP1  1            SI-GA… canc… GROUP21 
    ##  2 Mono clas…          0            0 GROUP1  1            SI-GA… canc… GROUP21 
    ##  3 CD4 cm S1…          0            0 GROUP1  1            SI-GA… canc… GROUP21 
    ##  4 B immature          0            0 GROUP1  1            SI-GA… canc… GROUP21 
    ##  5 CD8 naive           0            0 GROUP1  1            SI-GA… canc… GROUP21 
    ##  6 CD4 naive           0            0 GROUP1  1            SI-GA… canc… GROUP21 
    ##  7 Mono clas…          0            0 GROUP1  1            SI-GA… canc… GROUP21 
    ##  8 CD4 cm S1…          0            0 GROUP1  1            SI-GA… canc… GROUP21 
    ##  9 CD4 cm hi…          0            0 GROUP1  1            SI-GA… canc… GROUP21 
    ## 10 B immature          0            0 GROUP1  1            SI-GA… canc… GROUP21 
    ## # ℹ 106,287 more rows
    ## # ℹ 1 more variable: continuous_covariate <dbl>
…
    ## Model specifications:
    ##   Family: multi_beta_binomial 
    ##   Composition formula: ~type + (1 | group__) 
    ##   Variability formula: ~1 
    ##   Inference method: pathfinder 
    ## 
    ## Data: Samples: 20   Cell groups: 30 
    ## 
    ## Column prefixes: c_ -> composition parameters  v_ -> variability parameters
    ## 
    ## Convergence diagnostics:
    ##   For each parameter, n_eff is the effective sample size and R_k_hat is the potential
    ##   scale reduction factor on split chains (at convergence, R_k_hat = 1).
    ## 
    ## # A tibble: 180 × 15
    ##    cell_group parameter        factor c_lower c_effect c_upper c_rhat c_ess_bulk
    ##    <chr>      <chr>            <chr>    <dbl>    <dbl>   <dbl>  <dbl>      <dbl>
    ##  1 B immature (Intercept)      <NA>    0.519   0.855    1.20     1.01      155. 
    ##  2 B immature typehealthy      type    0.800   1.19     1.64     1.02      160. 
    ##  3 B immature (Intercept)___G… <NA>   -0.345   0.0515   0.498    1.01      130. 
    ##  4 B immature (Intercept)___G… <NA>   -0.124   0.242    0.715    1.01      150. 
    ##  5 B immature (Intercept)___G… <NA>   -0.0893  0.240    0.637    1.00      285. 
    ##  6 B immature (Intercept)___G… <NA>   -0.777  -0.317    0.0145   1.01      173. 
    ##  7 B mem      (Intercept)      <NA>   -0.836  -0.455   -0.0276   1.02      137. 
    ##  8 B mem      typehealthy      type    0.695   1.23     1.67     1.01       75.0
    ##  9 B mem      (Intercept)___G… <NA>   -0.391   0.00487  0.474    1.01      108. 
    ## 10 B mem      (Intercept)___G… <NA>   -0.0614  0.294    0.772    1.01      162. 
    ## # ℹ 170 more rows
    ## # ℹ 7 more variables: c_ess_tail <dbl>, v_lower <dbl>, v_effect <dbl>,
    ## #   v_upper <dbl>, v_rhat <dbl>, v_ess_bulk <dbl>, v_ess_tail <dbl>
…
    ## Model specifications:
    ##   Family: multi_beta_binomial 
    ##   Composition formula: ~type + (type | group__) 
    ##   Variability formula: ~1 
    ##   Inference method: pathfinder 
    ## 
    ## Data: Samples: 20   Cell groups: 30 
    ## 
    ## Column prefixes: c_ -> composition parameters  v_ -> variability parameters
    ## 
    ## Convergence diagnostics:
    ##   For each parameter, n_eff is the effective sample size and R_k_hat is the potential
    ##   scale reduction factor on split chains (at convergence, R_k_hat = 1).
    ## 
    ## # A tibble: 240 × 15
    ##    cell_group parameter        factor c_lower c_effect c_upper c_rhat c_ess_bulk
    ##    <chr>      <chr>            <chr>    <dbl>    <dbl>   <dbl>  <dbl>      <dbl>
    ##  1 B immature (Intercept)      <NA>    0.435    0.838   1.24    1.04        58.3
    ##  2 B immature typehealthy      type    0.685    1.19    1.75    1.01        63.8
    ##  3 B immature (Intercept)___G… <NA>   -0.305    0.0376  0.372   1.01       100. 
    ##  4 B immature typehealthy___G… <NA>   -0.229    0.0168  0.317   1.000      254. 
    ##  5 B immature (Intercept)___G… <NA>   -0.113    0.131   0.480   1.01       133. 
    ##  6 B immature typehealthy___G… <NA>   -0.191    0.123   0.457   1.01       122. 
    ##  7 B immature (Intercept)___G… <NA>   -0.0870   0.182   0.586   1.00       150. 
    ##  8 B immature (Intercept)___G… <NA>   -0.653   -0.237   0.0282  1.00       123. 
    ##  9 B mem      (Intercept)      <NA>   -1.00    -0.516  -0.107   1.00        97.6
    ## 10 B mem      typehealthy      type    0.768    1.29    1.88    1.00        59.8
    ## # ℹ 230 more rows
    ## # ℹ 7 more variables: c_ess_tail <dbl>, v_lower <dbl>, v_effect <dbl>,
    ## #   v_upper <dbl>, v_rhat <dbl>, v_ess_bulk <dbl>, v_ess_tail <dbl>
…
    ## Model specifications:
    ##   Family: multi_beta_binomial 
    ##   Composition formula: ~type + (type | group__) + (1 | group2__) 
    ##   Variability formula: ~1 
    ##   Inference method: pathfinder 
    ## 
    ## Data: Samples: 20   Cell groups: 30 
    ## 
    ## Column prefixes: c_ -> composition parameters  v_ -> variability parameters
    ## 
    ## Convergence diagnostics:
    ##   For each parameter, n_eff is the effective sample size and R_k_hat is the potential
    ##   scale reduction factor on split chains (at convergence, R_k_hat = 1).
    ## 
    ## # A tibble: 300 × 15
    ##    cell_group parameter        factor c_lower c_effect c_upper c_rhat c_ess_bulk
    ##    <chr>      <chr>            <chr>    <dbl>    <dbl>   <dbl>  <dbl>      <dbl>
    ##  1 B immature (Intercept)      <NA>    0.439    0.793   1.22    1.01       113. 
    ##  2 B immature typehealthy      type    0.724    1.20    1.65    1.01       110. 
    ##  3 B immature (Intercept)___G… <NA>   -0.143    0.123   0.546   1.01        86.6
    ##  4 B immature typehealthy___G… <NA>   -0.180    0.0757  0.493   1.01       102. 
    ##  5 B immature (Intercept)___G… <NA>   -0.177    0.0783  0.404   1.00       119. 
    ##  6 B immature typehealthy___G… <NA>   -0.179    0.0560  0.323   1.00       274. 
    ##  7 B immature (Intercept)___G… <NA>   -0.0116   0.247   0.666   1.00        92.0
    ##  8 B immature (Intercept)___G… <NA>   -0.769   -0.317   0.0473  1.01        76.9
    ##  9 B immature (Intercept)___G… <NA>   -0.441   -0.113   0.126   1.00       104. 
    ## 10 B immature (Intercept)___G… <NA>   -0.0106   0.234   0.746   1.000       95.9
    ## # ℹ 290 more rows
    ## # ℹ 7 more variables: c_ess_tail <dbl>, v_lower <dbl>, v_effect <dbl>,
    ## #   v_upper <dbl>, v_rhat <dbl>, v_ess_bulk <dbl>, v_ess_tail <dbl>
…
    ## Loading model from cache...

    ## Running standalone generated quantities after 1 MCMC chain, with 1 thread(s) per chain...
    ## 
    ## Chain 1 finished in 0.0 seconds.

    ## # A tibble: 36 × 2
    ##    cell_group statement                                
    ##    <chr>      <glue>                                   
    ##  1 B1         1.9-fold decrease (from 0.0577 to 0.0298)
    ##  2 B2         2.1-fold decrease (from 0.0384 to 0.0185)
    ##  3 B3         1.4-fold decrease (from 0.0127 to 0.009) 
    ##  4 BM         1.4-fold decrease (from 0.0066 to 0.0048)
    ##  5 CD4 1      1.2-fold increase (from 0.025 to 0.0299) 
    ##  6 CD4 2      1.4-fold increase (from 0.0521 to 0.0733)
    ##  7 CD4 3      2.5-fold decrease (from 0.0836 to 0.0339)
    ##  8 CD4 4      1.1-fold decrease (from 0.0017 to 0.0016)
    ##  9 CD4 5      1-fold increase (from 0.0303 to 0.0313)  
    ## 10 CD8 1      1.1-fold increase (from 0.1121 to 0.1213)
    ## # ℹ 26 more rows
…
    ## Model specifications:
    ##   Family: multi_beta_binomial 
    ##   Composition formula: ~0 + type 
    ##   Variability formula: ~1 
    ##   Inference method: pathfinder 
    ## 
    ## Data: Samples: 20   Cell groups: 30 
    ## 
    ## Column prefixes: c_ -> composition parameters  v_ -> variability parameters
    ## 
    ## Convergence diagnostics:
    ##   For each parameter, n_eff is the effective sample size and R_k_hat is the potential
    ##   scale reduction factor on split chains (at convergence, R_k_hat = 1).
    ## 
    ## # A tibble: 60 × 11
    ##    cell_group   parameter factor c_lower c_effect c_upper   c_pH0   c_FDR c_rhat
    ##    <chr>        <chr>     <chr>    <dbl>    <dbl>   <dbl>   <dbl>   <dbl>  <dbl>
    ##  1 B immature   typecanc… <NA>    -1.88    -1.36   -0.823 0       0           NA
    ##  2 B immature   typeheal… <NA>     0.823    1.36    1.88  0       0           NA
    ##  3 B mem        typecanc… <NA>    -2.21    -1.65   -1.08  0       0           NA
    ##  4 B mem        typeheal… <NA>     1.08     1.65    2.21  0       0           NA
    ##  5 CD4 cm S100… typecanc… <NA>    -1.47    -1.01   -0.553 2.50e-4 4.17e-5     NA
    ##  6 CD4 cm S100… typeheal… <NA>     0.553    1.01    1.47  2.50e-4 4.17e-5     NA
    ##  7 CD4 cm high… typecanc… <NA>     0.976    1.57    2.18  0       0           NA
    ##  8 CD4 cm high… typeheal… <NA>    -2.18    -1.57   -0.976 0       0           NA
    ##  9 CD4 cm ribo… typecanc… <NA>     0.349    0.943   1.54  2.25e-3 5.00e-4     NA
    ## 10 CD4 cm ribo… typeheal… <NA>    -1.54    -0.943  -0.349 2.25e-3 5.00e-4     NA
    ## # ℹ 50 more rows
    ## # ℹ 2 more variables: c_ess_bulk <dbl>, c_ess_tail <dbl>
…
