Print method for sccomp objects — print.sccomp_tbl • sccomp
…
#> Model specifications:
#>   Family: multi_beta_binomial 
#>   Composition formula: ~type 
#>   Variability formula: ~1 
#>   Inference method: pathfinder 
#> 
#> Data: Samples: 20   Cell groups: 36 
#> 
#> Column prefixes: c_ -> composition parameters  v_ -> variability parameters
#> 
#> Convergence diagnostics:
#>   For each parameter, n_eff is the effective sample size and R_k_hat is the potential
#>   scale reduction factor on split chains (at convergence, R_k_hat = 1).
#> 
#> # A tibble: 72 × 15
#>    cell_group parameter   factor c_lower c_effect  c_upper c_rhat c_ess_bulk
#>    <chr>      <chr>       <chr>    <dbl>    <dbl>    <dbl>  <dbl>      <dbl>
#>  1 B1         (Intercept) NA      0.947     1.20   1.45     1.00       3775.
#>  2 B1         typecancer  type   -0.933    -0.621 -0.303    1.00       3868.
#>  3 B2         (Intercept) NA      0.495     0.764  1.03     1.01       3905.
#>  4 B2         typecancer  type   -0.995    -0.665 -0.335    1.00       3691.
#>  5 B3         (Intercept) NA     -0.592    -0.336 -0.0674   1.00       3700.
#>  6 B3         typecancer  type   -0.603    -0.286  0.0311   1.00       3722.
#>  7 BM         (Intercept) NA     -1.23     -0.975 -0.723    1.00       3770.
#>  8 BM         typecancer  type   -0.614    -0.307  0.00820  1.000      4030.
#>  9 CD4 1      (Intercept) NA      0.209     0.368  0.533    1.00       4082.
#> 10 CD4 1      typecancer  type   -0.0254    0.191  0.413    1.00       3980.
#> # ℹ 62 more rows
#> # ℹ 7 more variables: c_ess_tail <dbl>, v_upper <dbl>, v_effect <dbl>,
#> #   v_lower <dbl>, v_rhat <dbl>, v_ess_bulk <dbl>, v_ess_tail <dbl>
…
