sccomp_remove_unwanted_variation — sccomp_remove_unwanted_variation • sccomp
…
  sccomp_remove_unwanted_variation(estimates)
#> sccomp says: calculating residuals
#> sccomp says: regressing out unwanted factors
#> # A tibble: 720 × 5
#>    sample       cell_group adjusted_proportion adjusted_counts logit_residuals
#>    <chr>        <chr>                    <dbl>           <dbl>           <dbl>
#>  1 10x_6K       B1                      0.0709           357.           0.230 
#>  2 10x_8K       B1                      0.0658           531.           0.148 
#>  3 GSE115189    B1                      0.0537           135.          -0.0668
#>  4 SCP345_580   B1                      0.0430           265.          -0.302 
#>  5 SCP345_860   B1                      0.0541           372.          -0.0598
#>  6 SCP424_pbmc1 B1                      0.0564           162.          -0.0150
#>  7 SCP424_pbmc2 B1                      0.100            320.           0.608 
#>  8 SCP591       B1                      0.0283            17.0         -0.732 
#>  9 SI-GA-E5     B1                      0.0324           155.          -0.673 
#> 10 SI-GA-E7     B1                      0.121            925.           0.929 
#> # ℹ 710 more rows
…
