…
#>    700        -3699.562             0.180            0.002   MEDIAN ELBO CONVERGED 
#> Drawing a sample of size 4000 from the approximate posterior...  
#> COMPLETED. 
#> Finished in  2.5 seconds.
#> sccomp says: to do hypothesis testing run `sccomp_test()`,
#>   the `test_composition_above_logit_fold_change` = 0.1 equates to a change of ~10%, and
#>   0.7 equates to ~100% increase, if the baseline is ~0.1 proportion.
#>   Use `sccomp_proportional_fold_change` to convert c_effect (linear) to proportion difference (non-linear).
#> sccomp says: auto-cleanup removed 1 draw files from 'sccomp_draws_files'
#> Loading model from cache...
#> Running standalone generated quantities after 1 MCMC chain, with 1 thread(s) per chain...
#> 
#> Chain 1  Elapsed Time: 0.558 seconds (Generated Quantities) 
#> Chain 1 finished in 0.0 seconds.
#> # A tibble: 720 × 5
#>    sample cell_group residuals exposure residuals_unconstrained
#>    <chr>  <chr>          <dbl>    <int>                   <dbl>
#>  1 10x_6K B1          0.0158       5030                 0.286  
#>  2 10x_6K B2         -0.0289       5030                -1.23   
#>  3 10x_6K B3         -0.00521      5030                -0.466  
#>  4 10x_6K BM          0.00159      5030                 0.248  
#>  5 10x_6K CD4 1      -0.000806     5030                 0.00530
#>  6 10x_6K CD4 2      -0.0128       5030                -0.272  
#>  7 10x_6K CD4 3       0.0588       5030                 0.586  
#>  8 10x_6K CD4 4      -0.00107      5030                -0.991  
#>  9 10x_6K CD4 5       0.00235      5030                 0.120  
#> 10 10x_6K CD8 1      -0.0204       5030                -0.179  
#> # ℹ 710 more rows
```
