sccomp_replicate — sccomp_replicate • sccomp
…
#> Path [50] : Iter      log prob        ||dx||      ||grad||     alpha      alpha0      # evals       ELBO    Best ELBO        Notes  
#>              76      -4.787e+05      9.050e-03   2.577e-01    1.000e+00  1.000e+00      4980 -3.688e+03 -3.690e+03                   
#> Path [50] :Best Iter: [73] ELBO (-3688.443319) evaluations: (4980) 
#> Finished in  15.6 seconds.
#> sccomp says: to do hypothesis testing run `sccomp_test()`,
#>   the `test_composition_above_logit_fold_change` = 0.1 equates to a change of ~10%, and
#>   0.7 equates to ~100% increase, if the baseline is ~0.1 proportion.
#>   Use `sccomp_proportional_fold_change` to convert c_effect (linear) to proportion difference (non-linear).
#> sccomp says: auto-cleanup removed 1 draw files from 'sccomp_draws_files'
#> Loading model from cache...
#> Running standalone generated quantities after 1 MCMC chain, with 1 thread(s) per chain...
#> 
#> Chain 1  Elapsed Time: 0.001 seconds (Generated Quantities) 
#> Chain 1 finished in 0.0 seconds.
#> # A tibble: 720 × 5
#>    cell_group sample       generated_proportions generated_counts replicate
#>    <chr>      <fct>                        <dbl>            <int>     <int>
#>  1 B1         10x_6K                      0.0563              281         1
#>  2 B1         10x_8K                      0.0359              179         1
#>  3 B1         GSE115189                   0.0338              169         1
#>  4 B1         SCP345_580                  0.0493              246         1
#>  5 B1         SCP345_860                  0.0609              304         1
#>  6 B1         SCP424_pbmc1                0.0429              214         1
#>  7 B1         SCP424_pbmc2                0.0123               61         1
#>  8 B1         SCP591                      0.0566              283         1
#>  9 B1         SI-GA-E5                    0.0154               76         1
#> 10 B1         SI-GA-E7                    0.0202              101         1
#> # ℹ 710 more rows
…
