sccomp_predict — sccomp_predict • sccomp
…
#> Path [50] : Iter      log prob        ||dx||      ||grad||     alpha      alpha0      # evals       ELBO    Best ELBO        Notes  
#>              66      -4.787e+05      8.152e-03   2.171e-01    1.000e+00  1.000e+00      3966 -3.684e+03 -3.691e+03                   
#> Path [50] :Best Iter: [63] ELBO (-3683.778625) evaluations: (3966) 
#> Finished in  15.4 seconds.
#> sccomp says: to do hypothesis testing run `sccomp_test()`,
#>   the `test_composition_above_logit_fold_change` = 0.1 equates to a change of ~10%, and
#>   0.7 equates to ~100% increase, if the baseline is ~0.1 proportion.
#>   Use `sccomp_proportional_fold_change` to convert c_effect (linear) to proportion difference (non-linear).
#> sccomp says: auto-cleanup removed 1 draw files from 'sccomp_draws_files'
#> Loading model from cache...
#> Running standalone generated quantities after 1 MCMC chain, with 1 thread(s) per chain...
#> 
#> Chain 1  Elapsed Time: 0.511 seconds (Generated Quantities) 
#> Chain 1 finished in 0.0 seconds.
#> # A tibble: 720 × 9
#>    sample type   cell_group proportion_mean proportion_lower proportion_upper
#>    <fct>  <fct>  <chr>                <dbl>            <dbl>            <dbl>
#>  1 10x_6K benign B1                 0.0583           0.0463           0.0734 
#>  2 10x_6K benign B2                 0.0381           0.0291           0.0487 
#>  3 10x_6K benign B3                 0.0127           0.00981          0.0160 
#>  4 10x_6K benign BM                 0.00675          0.00519          0.00867
#>  5 10x_6K benign CD4 1              0.0255           0.0215           0.0299 
#>  6 10x_6K benign CD4 2              0.0507           0.0412           0.0623 
#>  7 10x_6K benign CD4 3              0.0817           0.0628           0.104  
#>  8 10x_6K benign CD4 4              0.00165          0.00107          0.00239
#>  9 10x_6K benign CD4 5              0.0305           0.0236           0.0390 
#> 10 10x_6K benign CD8 1              0.111            0.0943           0.130  
#> # ℹ 710 more rows
#> # ℹ 3 more variables: unconstrained_mean <dbl>, unconstrained_lower <dbl>,
#> #   unconstrained_upper <dbl>
…
