…
#> Path [50] : Iter      log prob        ||dx||      ||grad||     alpha      alpha0      # evals       ELBO    Best ELBO        Notes  
#>              70      -4.787e+05      9.221e-03   2.334e-01    1.000e+00  1.000e+00      4468 -3.688e+03 -3.698e+03                   
#> Path [50] :Best Iter: [67] ELBO (-3688.114000) evaluations: (4468) 
#> Finished in  15.5 seconds.
#> sccomp says: to do hypothesis testing run `sccomp_test()`,
#>   the `test_composition_above_logit_fold_change` = 0.1 equates to a change of ~10%, and
#>   0.7 equates to ~100% increase, if the baseline is ~0.1 proportion.
#>   Use `sccomp_proportional_fold_change` to convert c_effect (linear) to proportion difference (non-linear).
#> sccomp says: auto-cleanup removed 1 draw files from 'sccomp_draws_files'
#> Loading model from cache...
#> Running standalone generated quantities after 1 MCMC chain, with 1 thread(s) per chain...
#> 
#> Chain 1  Elapsed Time: 0.072 seconds (Generated Quantities) 
#> Chain 1 finished in 0.0 seconds.
#> # A tibble: 36 × 4
#>    cell_group proportion_fold_change average_uncertainty statement              
#>    <chr>                       <dbl>               <dbl> <glue>                 
#>  1 B1                          -1.92             0.202   1.9-fold decrease (fro…
#>  2 B2                          -2.01             0.284   2-fold decrease (from …
#>  3 B3                          -1.38             0.163   1.4-fold decrease (fro…
#>  4 BM                          -1.41             0.114   1.4-fold decrease (fro…
#>  5 CD4 1                        1.17             0.00784 1.2-fold increase (fro…
#>  6 CD4 2                        1.42             0.0454  1.4-fold increase (fro…
#>  7 CD4 3                       -2.29             0.329   2.3-fold decrease (fro…
#>  8 CD4 4                       -1.06             0.0711  1.1-fold decrease (fro…
#>  9 CD4 5                        1.04             0.0972  1-fold increase (from …
#> 10 CD8 1                        1.09             0.00157 1.1-fold increase (fro…
#> # ℹ 26 more rows
…
