Calculate Residuals Between Observed and Predicted Proportions — sccomp_calculate_residuals • sccomp
…
#> Drawing a sample of size 4000 from the approximate posterior...  
#> COMPLETED. 
#> Finished in  2.6 seconds.
#> Warning: Unknown or uninitialised column: `c_R_k_hat`.
#> Warning: no non-missing arguments to max; returning -Inf
#> sccomp says: to do hypothesis testing run `sccomp_test()`,
#>   the `test_composition_above_logit_fold_change` = 0.1 equates to a change of ~10%, and
#>   0.7 equates to ~100% increase, if the baseline is ~0.1 proportion.
#>   Use `sccomp_proportional_fold_change` to convert c_effect (linear) to proportion difference (non-linear).
#> sccomp says: auto-cleanup removed 1 draw files from 'sccomp_draws_files'
#> Loading model from cache...
#> Running standalone generated quantities after 1 MCMC chain, with 1 thread(s) per chain...
#> 
#> Chain 1 finished in 0.0 seconds.
#> # A tibble: 720 × 4
#>    sample cell_group residuals exposure
#>    <chr>  <chr>          <dbl>    <int>
#>  1 10x_6K B1           0.0107      5030
#>  2 10x_6K B2          -0.0272      5030
#>  3 10x_6K B3          -0.00488     5030
#>  4 10x_6K BM           0.00204     5030
#>  5 10x_6K CD4 1        0.00210     5030
#>  6 10x_6K CD4 2       -0.0162      5030
#>  7 10x_6K CD4 3        0.0613      5030
#>  8 10x_6K CD4 4       -0.00105     5030
#>  9 10x_6K CD4 5       -0.00139     5030
#> 10 10x_6K CD8 1       -0.0283      5030
#> # ℹ 710 more rows
…
