simulate_data — simulate_data • sccomp
…
# Set coefficients for cell_groups. In this case all coefficients are 0 for simplicity.
counts_obj = counts_obj |> mutate(b_0 = 0, b_1 = 0)
# Simulate data
simulate_data(counts_obj, estimate, ~type, ~1, sample, cell_group, c(b_0, b_1))
#> # A tibble: 720 × 10
#>    sample type   phenotype    count cell_group   b_0   b_1 generated_proportions
#>    <chr>  <fct>  <fct>        <int> <chr>      <dbl> <dbl>                 <dbl>
#>  1 10x_6K benign b_cell_macr…    42 BM             0     0               0.101  
#>  2 10x_6K benign B_cell:imma…   361 B1             0     0               0      
#>  3 10x_6K benign B_cell:imma…    57 B2             0     0               0      
#>  4 10x_6K benign B_cell:Memo…    40 B3             0     0               0      
#>  5 10x_6K benign Dendritic_C…    75 Dm             0     0               0      
#>  6 10x_6K benign HSC_-G-CSF_…   187 H1             0     0               0.429  
#>  7 10x_6K benign HSC_-G-CSF_…   269 H2             0     0               0      
#>  8 10x_6K benign HSC_Bcell_m…   190 H3             0     0               0      
#>  9 10x_6K benign Mixed_CD3_c…   123 TM1            0     0               0.00386
#> 10 10x_6K benign Mixed_CD3_c…    19 TM2            0     0               0      
#> # ℹ 710 more rows
#> # ℹ 2 more variables: generated_counts <int>, replicate <int>
…
