Overview of the sccomp package • sccomp
…
## Chain 1: 
## Chain 1: 
## Chain 1: Iteration:    1 / 4300 [  0%]  (Warmup)
## Chain 1: Iteration:  301 / 4300 [  7%]  (Sampling)
## Chain 1: Iteration: 1300 / 4300 [ 30%]  (Sampling)
## Chain 1: Iteration: 2300 / 4300 [ 53%]  (Sampling)
## Chain 1: Iteration: 3300 / 4300 [ 76%]  (Sampling)
## Chain 1: Iteration: 4300 / 4300 [100%]  (Sampling)
## Chain 1: 
## Chain 1:  Elapsed Time: 3.119 seconds (Warm-up)
## Chain 1:                21.286 seconds (Sampling)
## Chain 1:                24.405 seconds (Total)
## Chain 1:

## # A tibble: 72 × 14
##    cell_group parameter   factor c_lower c_effect c_upper c_n_eff c_R_k_hat
##    <chr>      <chr>       <chr>    <dbl>    <dbl>   <dbl>   <dbl>     <dbl>
##  1 B1         (Intercept) NA      0.873     1.11   1.35     5622.      1.00
##  2 B1         typecancer  type   -1.04     -0.638 -0.257    3389.      1.00
##  3 B2         (Intercept) NA      0.405     0.702  0.979    5253.      1.00
##  4 B2         typecancer  type   -1.21     -0.729 -0.266    4258.      1.00
##  5 B3         (Intercept) NA     -0.670    -0.389 -0.115    5453.      1.00
##  6 B3         typecancer  type   -0.741    -0.316  0.0860   5450.      1.00
##  7 BM         (Intercept) NA     -1.32     -1.03  -0.749    4132.      1.00
##  8 BM         typecancer  type   -0.733    -0.309  0.105    5402.      1.00
##  9 CD4 1      (Intercept) NA      0.0731    0.298  0.505    4239.      1.00
## 10 CD4 1      typecancer  type   -0.112     0.194  0.482    3435.      1.00
## # ℹ 62 more rows
## # ℹ 6 more variables: v_lower <dbl>, v_effect <dbl>, v_upper <dbl>,
## #   v_n_eff <dbl>, v_R_k_hat <dbl>, count_data <list>
…
## Chain 1: 
## Chain 1: 
## Chain 1: Iteration:    1 / 4300 [  0%]  (Warmup)
## Chain 1: Iteration:  301 / 4300 [  7%]  (Sampling)
## Chain 1: Iteration: 1300 / 4300 [ 30%]  (Sampling)
## Chain 1: Iteration: 2300 / 4300 [ 53%]  (Sampling)
## Chain 1: Iteration: 3300 / 4300 [ 76%]  (Sampling)
## Chain 1: Iteration: 4300 / 4300 [100%]  (Sampling)
## Chain 1: 
## Chain 1:  Elapsed Time: 2.228 seconds (Warm-up)
## Chain 1:                17.033 seconds (Sampling)
## Chain 1:                19.261 seconds (Total)
## Chain 1:

## # A tibble: 60 × 18
##    cell_group  parameter factor c_lower c_effect c_upper   c_pH0   c_FDR c_n_eff
##    <chr>       <chr>     <chr>    <dbl>    <dbl>   <dbl>   <dbl>   <dbl>   <dbl>
##  1 B immature  typecanc… NA      -1.90    -1.40   -0.885 0       0            NA
##  2 B immature  typeheal… NA       0.885    1.40    1.90  0       0            NA
##  3 B mem       typecanc… NA      -2.34    -1.73   -1.09  0       0            NA
##  4 B mem       typeheal… NA       1.09     1.73    2.34  0       0            NA
##  5 CD4 cm S10… typecanc… NA      -1.48    -1.04   -0.616 0       0            NA
##  6 CD4 cm S10… typeheal… NA       0.616    1.04    1.48  0       0            NA
##  7 CD4 cm hig… typecanc… NA       0.806    1.76    2.86  2.50e-4 5.00e-5      NA
##  8 CD4 cm hig… typeheal… NA      -2.86    -1.76   -0.806 2.50e-4 5.00e-5      NA
##  9 CD4 cm rib… typecanc… NA       0.284    0.990   1.72  1.35e-2 4.15e-3      NA
## 10 CD4 cm rib… typeheal… NA      -1.72    -0.990  -0.284 1.35e-2 4.15e-3      NA
## # ℹ 50 more rows
## # ℹ 9 more variables: c_R_k_hat <dbl>, v_lower <dbl>, v_effect <dbl>,
## #   v_upper <dbl>, v_pH0 <dbl>, v_FDR <dbl>, v_n_eff <dbl>, v_R_k_hat <dbl>,
## #   count_data <list>
…
res

## # A tibble: 60 × 14
##    cell_group       parameter factor c_lower c_effect  c_upper c_n_eff c_R_k_hat
##    <chr>            <chr>     <chr>    <dbl>    <dbl>    <dbl>   <dbl>     <dbl>
##  1 B immature       (Interce… NA      0.350     0.770  1.18      5347.      1.00
##  2 B immature       typeheal… type    0.866     1.43   2.00      4483.      1.00
##  3 B mem            (Interce… NA     -1.46     -0.869 -0.185     4518.      1.00
##  4 B mem            typeheal… type    1.02      1.86   2.61      4197.      1.00
##  5 CD4 cm S100A4    (Interce… NA      1.31      1.66   2.00      6222.      1.00
##  6 CD4 cm S100A4    typeheal… type    0.494     0.937  1.40      5028.      1.00
##  7 CD4 cm high cyt… (Interce… NA     -1.05     -0.550 -0.00734   4724.      1.00
##  8 CD4 cm high cyt… typeheal… type   -3.05     -1.24   1.32      4275.      1.00
##  9 CD4 cm ribosome  (Interce… NA     -0.0869    0.303  0.684     4383.      1.00
## 10 CD4 cm ribosome  typeheal… type   -1.79     -0.946  0.121     3703.      1.00
## # ℹ 50 more rows
## # ℹ 6 more variables: v_lower <dbl>, v_effect <dbl>, v_upper <dbl>,
## #   v_n_eff <dbl>, v_R_k_hat <dbl>, count_data <list>
…
