New sccomp framework • sccomp
…
# Test
outlier_free_estimate |>
  sccomp_test(contrasts = "typehealthy") 

## # A tibble: 30 × 18
##    cell_group parameter factor c_lower c_effect  c_upper   c_pH0   c_FDR c_n_eff
##    <chr>      <chr>     <chr>    <dbl>    <dbl>    <dbl>   <dbl>   <dbl>   <dbl>
##  1 B immature typeheal… type     0.909    1.40   1.88    0       0         7756.
##  2 B mem      typeheal… type     1.05     1.72   2.32    0       0         5864.
##  3 CD4 cm S1… typeheal… type     0.599    0.990  1.42    5.00e-4 1.25e-4   6439.
##  4 CD4 cm hi… typeheal… type    -3.10    -1.96  -0.953   2.50e-4 5.00e-5   4336.
##  5 CD4 cm ri… typeheal… type    -1.76    -1.06  -0.383   5.25e-3 1.19e-3   4457.
##  6 CD4 em hi… typeheal… type    -2.22    -1.38  -0.608   1.25e-3 2.86e-4   4519.
##  7 CD4 naive  typeheal… type     0.201    0.821  1.43    2.48e-2 6.44e-3   6459.
##  8 CD4 ribos… typeheal… type     1.51     2.05   2.55    0       0         5409.
##  9 CD8 em 1   typeheal… type    -0.559    0.115  0.683   6.08e-1 1.26e-1   5656.
## 10 CD8 em 2   typeheal… type    -2.15    -0.979  0.00627 6.75e-2 1.76e-2   5074.
## # ℹ 20 more rows
## # ℹ 9 more variables: c_R_k_hat <dbl>, v_lower <dbl>, v_effect <dbl>,
## #   v_upper <dbl>, v_pH0 <dbl>, v_FDR <dbl>, v_n_eff <dbl>, v_R_k_hat <dbl>,
## #   count_data <list>
…
Removal of unwanted variation.

For visualisation purposes, we can select factor of
interest we would like to preserve the effect for, end exclude all the
rest. For example, if we want to produce a dataset with just the
type effect, we can execute

outlier_free_estimate |>
  sccomp_remove_unwanted_variation(~ type)

## sccomp says: calculating residuals

## sccomp says: regressing out unwanted factors

## # A tibble: 600 × 5
##    sample       cell_group adjusted_proportion adjusted_counts logit_residuals
##    <chr>        <chr>                    <dbl>           <dbl>           <dbl>
##  1 10x_6K       B immature              0.0544           255.          -0.755 
##  2 10x_8K       B immature              0.143           1073.           0.321 
##  3 GSE115189    B immature              0.112            263.           0.0223
##  4 SCP345_580   B immature              0.0899           518.          -0.205 
##  5 SCP345_860   B immature              0.150            965.           0.378 
##  6 SCP424_pbmc1 B immature              0.112            300.          -0.0223
##  7 SCP424_pbmc2 B immature              0.200            598.           0.715 
##  8 SCP591       B immature              0.0246            14.0         -1.57  
##  9 SI-GA-E5     B immature              0.0247           103.          -0.694 
## 10 SI-GA-E7     B immature              0.0991           727.           0.792 
## # ℹ 590 more rows
…
