Smooth (spline) terms in sccomp • sccomp
…
#> Model specifications:
#>   Family: multi_beta_binomial 
#>   Composition formula: ~type + s(pseudotime, k = 5) 
#>   Variability formula: ~1 
#>   Inference method: pathfinder 
#> 
#> Data: Samples: 20   Cell groups: 36 
#> 
#> Column prefixes: c_ -> composition parameters  v_ -> variability parameters
#> 
#> Convergence diagnostics:
#>   For each parameter, n_eff is the effective sample size and R_k_hat is the potential
#>   scale reduction factor on split chains (at convergence, R_k_hat = 1).
#> 
#> # A tibble: 216 × 6
#>    cell_group parameter                      c_lower c_effect c_upper    c_FDR
#>    <chr>      <chr>                            <dbl>    <dbl>   <dbl>    <dbl>
#>  1 B1         (Intercept)                      0.918   1.19     1.46  0       
#>  2 B1         typecancer                      -0.859  -0.559   -0.229 0.000625
#>  3 B1         s(pseudotime, k = 5)__lin1      -0.445  -0.0367   0.321 0.222   
#>  4 B1         s(pseudotime, k = 5)___basis01  -1.90   -0.653    0.172 0.0585  
#>  5 B1         s(pseudotime, k = 5)___basis02  -1.56   -0.338    0.399 0.151   
#>  6 B1         s(pseudotime, k = 5)___basis03  -0.944  -0.242    0.419 0.143   
#>  7 B2         (Intercept)                      0.534   0.849    1.15  0       
#>  8 B2         typecancer                      -1.16   -0.811   -0.445 0       
#>  9 B2         s(pseudotime, k = 5)__lin1      -0.256   0.211    0.603 0.0684  
#> 10 B2         s(pseudotime, k = 5)___basis01  -2.22   -1.10    -0.165 0.0113  
#> # ℹ 206 more rows
…
